   0x55 0x55 0x55 0x55
   0x55 0x55 0x55 0x55
   0x55 0x55 0x55 0x55
   0x55 0x55 0x55 0x55
   0x55 0x55 0x55 0x55
   0x55 0x55 0x55 0x55
   0x55 0x55 0x55 0x55
   0x55 0x55 0x55 0x55
   0x55 0x55 0x55 0x55
   0x55 0x55 0x55 0x55
   0x55 0x55 0x55 0x55
   0x55 0x55 0x55 0x55
   0x55 0x55 0x55 0x55
   0x55 0x55 0x55 0x55
   0x55 0x55 0x55 0x55
   0x55 0x55 0x55 0x55
   0x55 0x55 0x55 0x55
   0x55 0x55 0x55 0x55
   0x55 0x55 0x55 0x55
   0x55 0x55 0x55 0x55
   0x55 0x55 0x55 0x55
   0x55 0x55 0x55 0x55
   0x55 0x55 0x55 0x55
   0x55 0x55 0x55 0x55
   0x55 0x55 0x55 0x55
   0x55 0x55 0x55 0x55
   0x55 0x55 0x55 0x55
   0x55 0x55 0x55 0x55
   0x55 0x55 0x55 0x55
   0x55 0x55 0x55 0x55
   0x55 0x55 0x55 0x55
   0x55 0x55 0x55 0x55
   0x55 0x55 0x55 0x55
   0x55 0x55 0x55 0x55
   0x55 0x55 0x55 0x55
   0x55 0x55 0x55 0x55
   0x55 0x55 0x55 0x55
   0x55 0x55 0x55 0x55
   0x55 0x55 0x55 0x55
   0x55 0x55 0x55 0x55
   0x55 0x55 0x55 0x55
   0x55 0x55 0x55 0x55
   0x55 0x55 0x55 0x55
   0x55 0x55 0x55 0x55
   0x55 0x55 0x55 0x55
   0x55 0x55 0x55 0x55
   0x55 0x55 0x55 0x55
   0x55 0x55 0x55 0x55
   0x55 0x55 0x55 0x55
   0x55 0x55 0x55 0x55
   0x55 0x55 0x55 0x55
   0x55 0x55 0x55 0x55
   0x55 0x55 0x55 0x55
   0x55 0x55 0x55 0x55
   0x55 0x55 0x55 0x55
   0x55 0x55 0x55 0x55
   0x55 0x55 0x55 0x55
   0x55 0x55 0x55 0x55
   0x55 0x55 0x55 0x55
   0x55 0x55 0x55 0x55
   0x55 0x55 0x55 0x55
   0x55 0x55 0x55 0x55
   0x55 0x55 0x55 0x55
   0x55 0x55 0x55 0x55
   0x20 0x0a 0x00 0x20
   0x8d 0x4b 0x00 0x40
   0x8d 0x4c 0x00 0x44
   0x8d 0x4d 0x00 0x48
   0x8d 0x4e 0x14 0x6c
   0x55 0x55 0x55 0x55
   0x55 0x55 0x55 0x55
   0x55 0x55 0x55 0x55
   0x55 0x55 0x55 0x55
   0x55 0x55 0x55 0x55
   0x55 0x55 0x55 0x55
   0x55 0x55 0x55 0x55
   0x00 0x00 0x00 0x00
   0x00 0x00 0x00 0x00
   0x00 0x00 0x00 0x00
   0x00 0x00 0x00 0x00
   0x00 0x00 0x00 0x00
   0x00 0x00 0x00 0x00
   0x00 0x00 0x00 0x00
   0x00 0x00 0x00 0x00
   0x00 0x00 0x00 0x00
   0x00 0x00 0x00 0x00
   0x00 0x00 0x00 0x00
   0x00 0x00 0x00 0x00
   0x00 0x00 0x00 0x00
   0x00 0x00 0x00 0x00
   0x00 0x00 0x00 0x00
   0x00 0x00 0x00 0x00
   0x00 0x00 0x00 0x00
   0x00 0x00 0x00 0x00
   0x00 0x00 0x00 0x00
   0x00 0x00 0x00 0x00
   0x00 0x00 0x00 0x00
   0x00 0x00 0x00 0x00
   0x00 0x00 0x00 0x00
   0x00 0x00 0x00 0x00
   0x00 0x00 0x00 0x00
   0x00 0x00 0x00 0x00
   0x00 0x00 0x00 0x00
   0x00 0x00 0x00 0x00
   0x00 0x00 0x00 0x00
   0x00 0x00 0x00 0x00
   0x00 0x00 0x00 0x00
   0x00 0x00 0x00 0x00
   0x00 0x00 0x00 0x00
   0x00 0x00 0x00 0x00
   0x00 0x00 0x00 0x00
   0x00 0x00 0x00 0x00
   0x00 0x00 0x00 0x00
   0x00 0x00 0x00 0x00
   0x00 0x00 0x00 0x00
   0x00 0x00 0x00 0x00
   0x00 0x00 0x00 0x00
   0x00 0x00 0x00 0x00
   0x00 0x00 0x00 0x00
   0x00 0x00 0x00 0x00
   0x00 0x00 0x00 0x00
   0x00 0x00 0x00 0x00
   0x00 0x00 0x00 0x00
   0x00 0x00 0x00 0x00
   0x00 0x00 0x00 0x00
   0x00 0x00 0x00 0x00
   0x00 0x00 0x00 0x00
   0x00 0x00 0x00 0x00
   0x55 0x55 0x55 0x55
   0x55 0x55 0x55 0x55
   0x55 0x55 0x55 0x55
   0x55 0x55 0x55 0x55
   0x55 0x55 0x55 0x55
   0x55 0x55 0x55 0x55
   0x55 0x55 0x55 0x55
   0x55 0x55 0x55 0x55
   0x55 0x55 0x55 0x55
   0x55 0x55 0x55 0x55
   0x55 0x55 0x55 0x55
   0x55 0x55 0x55 0x55
   0x55 0x55 0x55 0x55
   0x55 0x55 0x55 0x55
   0x55 0x55 0x55 0x55
   0x55 0x55 0x55 0x55
   0x55 0x55 0x55 0x55
   0x55 0x55 0x55 0x55
   0x55 0x55 0x55 0x55
   0x55 0x55 0x55 0x55
   0x55 0x55 0x55 0x55
   0x55 0x55 0x55 0x55
   0x55 0x55 0x55 0x55
   0x55 0x55 0x55 0x55
   0x55 0x55 0x55 0x55
   0x55 0x55 0x55 0x55
   0x55 0x55 0x55 0x55
   0x55 0x55 0x55 0x55
   0x55 0x55 0x55 0x55
   0x55 0x55 0x55 0x55
   0x55 0x55 0x55 0x55
   0x55 0x55 0x55 0x55
   0x55 0x55 0x55 0x55
   0x55 0x55 0x55 0x55
   0x55 0x55 0x55 0x55
   0x55 0x55 0x55 0x55
   0x55 0x55 0x55 0x55
   0x55 0x55 0x55 0x55
   0x55 0x55 0x55 0x55
   0x55 0x55 0x55 0x55
   0x55 0x55 0x55 0x55
   0x55 0x55 0x55 0x55
   0x55 0x55 0x55 0x55
   0x55 0x55 0x55 0x55
   0x55 0x55 0x55 0x55
   0x55 0x55 0x55 0x55
   0x55 0x55 0x55 0x55
   0x55 0x55 0x55 0x55
   0x55 0x55 0x55 0x55
   0x55 0x55 0x55 0x55
   0x55 0x55 0x55 0x55
   0x55 0x55 0x55 0x55
   0x55 0x55 0x55 0x55
   0x55 0x55 0x55 0x55
   0x55 0x55 0x55 0x55
   0x55 0x55 0x55 0x55
   0x55 0x55 0x55 0x55
   0x55 0x55 0x55 0x55
   0x55 0x55 0x55 0x55
   0x55 0x55 0x55 0x55
   0x55 0x55 0x55 0x55
   0x55 0x55 0x55 0x55
   0x55 0x55 0x55 0x55
   0x55 0x55 0x55 0x55
   0x00 0x00 0x00 0x00
   0x00 0x00 0x00 0x00
   0x20 0x02 0x12 0x34
   0x20 0x03 0x56 0x78
   0x08 0x00 0x00 0x7e
   0x55 0x55 0x55 0x55
   0x55 0x55 0x55 0x55
   0x55 0x55 0x55 0x55
   0x55 0x55 0x55 0x55
   0x55 0x55 0x55 0x55
   0x55 0x55 0x55 0x55
   0x55 0x55 0x55 0x55
   0x55 0x55 0x55 0x55
   0x00 0x00 0x00 0x00
   0x00 0x00 0x00 0x00
   0x00 0x00 0x00 0x00
   0x00 0x00 0x00 0x00
   0x00 0x00 0x00 0x00
   0x00 0x00 0x00 0x00
   0x00 0x00 0x00 0x00
   0x00 0x00 0x00 0x00
   0x00 0x00 0x00 0x00
   0x00 0x00 0x00 0x00
   0x00 0x00 0x00 0x00
   0x00 0x00 0x00 0x00
   0x00 0x00 0x00 0x00
   0x00 0x00 0x00 0x00
   0x00 0x00 0x00 0x00
   0x00 0x00 0x00 0x00
   0x00 0x00 0x00 0x00
   0x00 0x00 0x00 0x00
   0x00 0x00 0x00 0x00
   0x00 0x00 0x00 0x00
   0x00 0x00 0x00 0x00
   0x00 0x00 0x00 0x00
   0x00 0x00 0x00 0x00
   0x00 0x00 0x00 0x00
   0x00 0x00 0x00 0x00
   0x00 0x00 0x00 0x00
   0x00 0x00 0x00 0x00
   0x00 0x00 0x00 0x00
   0x00 0x00 0x00 0x00
   0x00 0x00 0x00 0x00
   0x00 0x00 0x00 0x00
   0x00 0x00 0x00 0x00
   0x00 0x00 0x00 0x00
   0x00 0x00 0x00 0x00
   0x00 0x00 0x00 0x00
   0x00 0x00 0x00 0x00
   0x00 0x00 0x00 0x00
   0x00 0x00 0x00 0x00
   0x00 0x00 0x00 0x00
   0x00 0x00 0x00 0x00
   0x00 0x00 0x00 0x00
   0x00 0x00 0x00 0x00
   0x00 0x00 0x00 0x00
   0x55 0x55 0x55 0x55
   0x55 0x55 0x55 0x55
   0x55 0x55 0x55 0x55
   0x55 0x55 0x55 0x55
   0x55 0x55 0x55 0x55
   0x55 0x55 0x55 0x55
   0x55 0x55 0x55 0x55
   0x55 0x55 0x55 0x55
   0x00 0x62 0x28 0x22
   0xac 0x05 0x00 0x64
   0x00 0x43 0x30 0x24
   0xac 0x06 0x00 0x68
   0x00 0x43 0x38 0x25
   0xac 0x07 0x14 0x8c
   0x20 0x08 0x7f 0xff
   0x00 0x43 0x40 0x2a
   0x20 0x09 0x7f 0xff
   0x00 0x62 0x48 0x2a
   0x08 0x00 0x05 0x00
   0x55 0x55 0x55 0x55
   0x00 0x00 0x00 0x00
   0x00 0x00 0x00 0x00
   0x00 0x00 0x00 0x00
   0x00 0x00 0x00 0x00
   0x00 0x00 0x00 0x00
   0x00 0x00 0x00 0x00
   0x00 0x00 0x00 0x00
   0x00 0x00 0x00 0x00
   0x00 0x00 0x00 0x00
   0x00 0x00 0x00 0x00
   0x00 0x00 0x00 0x00
   0x00 0x00 0x00 0x00
   0x00 0x00 0x00 0x00
   0x00 0x00 0x00 0x00
   0x00 0x00 0x00 0x00
   0x00 0x00 0x00 0x00
   0x00 0x00 0x00 0x00
   0x00 0x00 0x00 0x00
   0x00 0x00 0x00 0x00
   0x00 0x00 0x00 0x00
   0x00 0x00 0x00 0x00
   0x00 0x00 0x00 0x00
   0x00 0x00 0x00 0x00
   0x00 0x00 0x00 0x00
   0x00 0x00 0x00 0x00
   0x00 0x00 0x00 0x00
   0x00 0x00 0x00 0x00
   0x00 0x00 0x00 0x00
   0x00 0x00 0x00 0x00
   0x00 0x00 0x00 0x00
   0x00 0x00 0x00 0x00
   0x00 0x00 0x00 0x00
   0x00 0x00 0x00 0x00
   0x00 0x00 0x00 0x00
   0x00 0x00 0x00 0x00
   0x00 0x00 0x00 0x00
   0x00 0x00 0x00 0x00
   0x00 0x00 0x00 0x00
   0x00 0x00 0x00 0x00
   0x00 0x00 0x00 0x00
   0x00 0x00 0x00 0x00
   0x00 0x00 0x00 0x00
   0x00 0x00 0x00 0x00
   0x00 0x00 0x00 0x00
   0x55 0x55 0x55 0x55
   0x55 0x55 0x55 0x55
   0x55 0x55 0x55 0x55
   0x55 0x55 0x55 0x55
   0x55 0x55 0x55 0x55
   0x55 0x55 0x55 0x55
   0x55 0x55 0x55 0x55
   0x55 0x55 0x55 0x55
   0x55 0x55 0x55 0x55
   0x55 0x55 0x55 0x55
   0x00 0x62 0x28 0x23
   0xac 0x05 0x00 0x84
   0x00 0x00 0x00 0x00
   0x00 0x00 0x00 0x00
   0x00 0x00 0x00 0x00
   0x00 0x00 0x00 0x00
   0x00 0x00 0x00 0x00
   0x00 0x00 0x00 0x00
   0x00 0x00 0x00 0x00
   0x00 0x00 0x00 0x00
   0x00 0x00 0x00 0x00
   0x00 0x00 0x00 0x00
   0x00 0x00 0x00 0x00
   0x00 0x00 0x00 0x00
   0x00 0x00 0x00 0x00
   0x00 0x00 0x00 0x00
   0x00 0x00 0x00 0x00
   0x00 0x00 0x00 0x00
   0x00 0x00 0x00 0x00
   0x00 0x00 0x00 0x00
   0x00 0x00 0x00 0x00
   0x00 0x00 0x00 0x00
   0x00 0x00 0x00 0x00
   0x00 0x00 0x00 0x00
   0x00 0x00 0x00 0x00
   0x00 0x00 0x00 0x00
   0x00 0x00 0x00 0x00
   0x00 0x00 0x00 0x00
   0x00 0x00 0x00 0x00
   0x00 0x00 0x00 0x00
   0x00 0x00 0x00 0x00
   0x00 0x00 0x00 0x00
   0x00 0x00 0x00 0x00
   0x00 0x00 0x00 0x00
   0x00 0x00 0x00 0x00
   0x00 0x00 0x00 0x00
   0x00 0x00 0x00 0x00
   0x00 0x00 0x00 0x00
   0x00 0x00 0x00 0x00
   0x00 0x00 0x00 0x00
   0x00 0x00 0x00 0x00
   0x00 0x00 0x00 0x00
   0x00 0x00 0x00 0x00
   0x00 0x00 0x00 0x00
   0x00 0x00 0x00 0x00
   0x00 0x00 0x00 0x00
   0x00 0x00 0x00 0x00
   0x00 0x00 0x00 0x00
   0x00 0x00 0x00 0x00
   0x00 0x00 0x00 0x00
   0x00 0x00 0x00 0x00
   0x00 0x00 0x00 0x00
   0x00 0x00 0x00 0x00
   0x00 0x00 0x00 0x00
   0x00 0x00 0x00 0x00
   0x00 0x00 0x00 0x00
   0x00 0x00 0x00 0x00
   0x00 0x00 0x00 0x00
   0x00 0x00 0x00 0x00
   0x00 0x00 0x00 0x00
   0x00 0x43 0x20 0x20
   0xac 0x04 0x00 0x60
   0x55 0x55 0x55 0x55
   0x55 0x55 0x55 0x55
   0x55 0x55 0x55 0x55
   0x55 0x55 0x55 0x55
   0x55 0x55 0x55 0x55
   0x55 0x55 0x55 0x55
   0x55 0x55 0x55 0x55
   0x55 0x55 0x55 0x55
   0x55 0x55 0x55 0x55
   0x55 0x55 0x55 0x55
   0x55 0x55 0x55 0x55
   0x55 0x55 0x55 0x55
   0x55 0x55 0x55 0x55
   0x55 0x55 0x55 0x55
   0x55 0x55 0x55 0x55
   0x55 0x55 0x55 0x55
   0x55 0x55 0x55 0x55
   0x55 0x55 0x55 0x55
   0x55 0x55 0x55 0x55
   0x55 0x55 0x55 0x55
   0x55 0x55 0x55 0x55
   0x55 0x55 0x55 0x55
   0x55 0x55 0x55 0x55
   0x55 0x55 0x55 0x55
   0x55 0x55 0x55 0x55
   0x55 0x55 0x55 0x55
   0x55 0x55 0x55 0x55
   0x55 0x55 0x55 0x55
   0x55 0x55 0x55 0x55
   0x55 0x55 0x55 0x55
   0x55 0x55 0x55 0x55
   0x55 0x55 0x55 0x55
   0x55 0x55 0x55 0x55
   0x55 0x55 0x55 0x55
   0x55 0x55 0x55 0x55
   0x55 0x55 0x55 0x55
   0x55 0x55 0x55 0x55
   0x55 0x55 0x55 0x55
   0x55 0x55 0x55 0x55
   0x55 0x55 0x55 0x55
   0x55 0x55 0x55 0x55
   0x55 0x55 0x55 0x55
   0x55 0x55 0x55 0x55
   0x55 0x55 0x55 0x55
   0x55 0x55 0x55 0x55
   0x55 0x55 0x55 0x55
   0x55 0x55 0x55 0x55
   0x55 0x55 0x55 0x55
   0x55 0x55 0x55 0x55
   0x55 0x55 0x55 0x55
   0x55 0x55 0x55 0x55
   0x55 0x55 0x55 0x55
   0x55 0x55 0x55 0x55
   0x55 0x55 0x55 0x55
   0x55 0x55 0x55 0x55
   0x55 0x55 0x55 0x55
   0x55 0x55 0x55 0x55
   0x55 0x55 0x55 0x55
   0x55 0x55 0x55 0x55
   0x55 0x55 0x55 0x55
   0x55 0x55 0x55 0x55
   0x55 0x55 0x55 0x55
   0x55 0x55 0x55 0x55
   0x55 0x55 0x55 0x55
   0x55 0x55 0x55 0x55
   0x55 0x55 0x55 0x55
   0x55 0x55 0x55 0x55
   0x55 0x55 0x55 0x55
   0x55 0x55 0x55 0x55
   0x55 0x55 0x55 0x55
   0x55 0x55 0x55 0x55
   0x55 0x55 0x55 0x55
   0x55 0x55 0x55 0x55
   0x55 0x55 0x55 0x55
   0x55 0x55 0x55 0x55
   0x55 0x55 0x55 0x55
   0x55 0x55 0x55 0x55
   0x55 0x55 0x55 0x55
   0x55 0x55 0x55 0x55
   0x55 0x55 0x55 0x55
   0x55 0x55 0x55 0x55
   0x55 0x55 0x55 0x55
   0x55 0x55 0x55 0x55
   0x55 0x55 0x55 0x55
   0x55 0x55 0x55 0x55
   0x55 0x55 0x55 0x55
   0x55 0x55 0x55 0x55
   0x55 0x55 0x55 0x55
   0x55 0x55 0x55 0x55
   0x55 0x55 0x55 0x55
   0x55 0x55 0x55 0x55
   0x55 0x55 0x55 0x55
   0x55 0x55 0x55 0x55
   0x55 0x55 0x55 0x55
   0x55 0x55 0x55 0x55
   0x55 0x55 0x55 0x55
   0x55 0x55 0x55 0x55
   0x55 0x55 0x55 0x55
   0x55 0x55 0x55 0x55
   0x55 0x55 0x55 0x55
   0x55 0x55 0x55 0x55
   0x55 0x55 0x55 0x55
   0x55 0x55 0x55 0x55
   0x55 0x55 0x55 0x55
   0x55 0x55 0x55 0x55
   0x55 0x55 0x55 0x55
   0x55 0x55 0x55 0x55
   0x55 0x55 0x55 0x55
   0x55 0x55 0x55 0x55
   0x55 0x55 0x55 0x55
   0x55 0x55 0x55 0x55
   0x55 0x55 0x55 0x55
   0x55 0x55 0x55 0x55
   0x55 0x55 0x55 0x55
   0x55 0x55 0x55 0x55
   0x55 0x55 0x55 0x55
   0x55 0x55 0x55 0x55
   0x55 0x55 0x55 0x55
   0x55 0x55 0x55 0x55
   0x55 0x55 0x55 0x55
   0x55 0x55 0x55 0x55
   0x55 0x55 0x55 0x55
   0x55 0x55 0x55 0x55
   0x55 0x55 0x55 0x55
   0x55 0x55 0x55 0x55
   0x55 0x55 0x55 0x55
   0x55 0x55 0x55 0x55
   0x55 0x55 0x55 0x55
